{
	"trackInfo": [
		{
			"trackID": "TA0001",
			"category": "Air",
			"identity": "Friend"
		},
		{
			"trackID": "TA0002",
			"category": "Air",
			"identity": "Unknown"
		},
		{
			"trackID": "TA0003",
			"category": "Air",
			"identity": "Enemy"
		},
		{
			"trackID": "TA0004",
			"category": "Air",
			"identity": "Enemy"
		},
		{
			"trackID": "TA0005",
			"category": "Air",
			"identity": "Enemy"
		},
		{
			"trackID": "TA0006",
			"category": "Air",
			"identity": "Unknown"
		},
		{
			"trackID": "TA0007",
			"category": "Air",
			"identity": "Nutral"
		},
		{
			"trackID": "TA0008",
			"category": "Air",
			"identity": "Enemy"
		},
		{
			"trackID": "TA0009",
			"category": "Air",
			"identity": "Friend"
		},
		{
			"trackID": "TA0010",
			"category": "Air",
			"identity": "Unknown"
		},
		{
			"trackID": "TA0011",
			"category": "Air",
			"identity": "Nutral"
		},
		{
			"trackID": "TA0012",
			"category": "Air",
			"identity": "Enemy"
		},
		{
			"trackID": "TA0013",
			"category": "Air",
			"identity": "Friend"
		},
		{
			"trackID": "TA0014",
			"category": "Air",
			"identity": "Unknown"
		},
		{
			"trackID": "TA0015",
			"category": "Air",
			"identity": "Unknown"
		},
		{
			"trackID": "TA0016",
			"category": "Air",
			"identity": "Enemy"
		},
		{
			"trackID": "TA0017",
			"category": "Air",
			"identity": "Enemy"
		},
		{
			"trackID": "TA0018",
			"category": "Air",
			"identity": "Unknown"
		},
		{
			"trackID": "TA0019",
			"category": "Air",
			"identity": "Unknown"
		},
		{
			"trackID": "TA0020",
			"category": "Air",
			"identity": "Enemy"
		}
	]
}